<svg width="24" height="24" viewBox="0 0 24 24" fill="none" xmlns="http://www.w3.org/2000/svg">
<path d="M11.5453 1.0561L1.38126 4.60681C1.15883 4.68451 1.02083 4.90695 1.05 5.14075L2.61572 17.6888C2.63542 17.8467 2.72911 17.9858 2.86804 18.0634L11.4695 22.868C11.617 22.9503 11.7961 22.9527 11.9456 22.8743L21.1214 18.0614C21.2664 17.9854 21.365 17.8431 21.3853 17.6806L22.9492 5.14747C22.9787 4.91064 22.8368 4.68594 22.6102 4.61091L11.8674 1.05348C11.7627 1.0188 11.6494 1.01972 11.5453 1.0561Z" stroke="white" stroke-width="2"/>
<path d="M7.49994 13.5L11.2105 16L17 10" stroke="white" stroke-width="2" stroke-linecap="round" stroke-linejoin="round"/>
</svg>
