<svg width="56" height="56" viewBox="0 0 56 56" fill="none" xmlns="http://www.w3.org/2000/svg">
<g clip-path="url(#clip0)">
<path d="M45.1921 39.7698C45.0566 38.8619 44.8777 37.9268 44.6563 36.9707C44.4608 36.1311 44.2336 35.2749 43.9757 34.4059C43.2974 32.1238 42.4037 29.7522 41.3203 27.3546C40.8458 26.3065 40.3347 25.2538 39.7894 24.2022C39.309 23.2755 38.8027 22.3475 38.2691 21.4254C37.7369 20.5022 37.1881 19.6002 36.6241 18.7206C35.987 17.7232 35.3311 16.7552 34.6599 15.8202C33.1266 13.6828 31.5193 11.7222 29.8812 9.99344C29.2584 9.33516 28.6306 8.71104 28.0006 8.12343C27.2835 7.4522 26.5628 6.82932 25.8433 6.25816C21.1459 2.52875 16.9408 1.40886 14.0004 3.10576C11.06 4.80379 9.92711 9.00541 10.808 14.9393C10.9422 15.8472 11.1224 16.7823 11.345 17.7384C11.5381 18.578 11.7653 19.4342 12.0244 20.3032C12.7028 22.5853 13.5965 24.9582 14.6811 27.3545C15.1545 28.4026 15.6655 29.4541 16.2107 30.5057C16.6911 31.4336 17.1987 32.3603 17.731 33.2836C18.2633 34.2068 18.812 35.1088 19.3761 35.9884C20.0143 36.9871 20.6702 37.955 21.3403 38.89C22.8735 41.0273 24.4809 42.9868 26.1189 44.7155C26.7419 45.3737 27.3707 45.999 28.0006 46.5866C28.7177 47.2578 29.4384 47.8796 30.1568 48.4507C31.8843 49.8226 33.5447 50.8412 35.1003 51.4948C42.5682 53.8365 44.3981 49.1031 45.1627 46.7186C45.5771 44.8087 45.5924 42.4688 45.1921 39.7698ZM42.5472 46.2901C42.2045 47.7715 41.5745 48.7866 40.6737 49.3059C39.774 49.8263 38.58 49.8641 37.1256 49.4213C35.55 48.9396 33.7106 47.8869 31.8053 46.3737C31.1648 45.865 30.5229 45.3115 29.8811 44.7168C29.2523 44.1327 28.6234 43.5086 27.9994 42.8479C26.9278 41.714 25.8679 40.4727 24.834 39.1409C24.144 38.2519 23.4645 37.3228 22.8015 36.3583C21.8394 34.9605 20.9103 33.4886 20.0271 31.9577C19.1428 30.4268 18.3326 28.8865 17.6037 27.3545C17.0997 26.2982 16.6345 25.2455 16.2106 24.2033C15.5735 22.6419 15.0283 21.1028 14.582 19.6084C14.3229 18.737 14.0957 17.8821 13.906 17.0449C13.7105 16.1923 13.5516 15.3586 13.4315 14.5496C13.0735 12.1438 13.0818 10.0242 13.4527 8.41915C13.7954 6.93773 14.4265 5.92266 15.3261 5.40334C15.8124 5.12306 16.3836 4.98174 17.0348 4.98174C17.5906 4.98174 18.2052 5.08418 18.8741 5.28907C20.4497 5.7695 22.2891 6.82346 24.1944 8.33553C24.835 8.84425 25.4779 9.39771 26.1186 9.99479C26.7486 10.5777 27.3763 11.2018 27.9992 11.8613C29.072 12.9953 30.1318 14.2365 31.1669 15.5695C31.857 16.4586 32.5364 17.3877 33.1994 18.3522C34.1603 19.75 35.0895 21.2219 35.9726 22.7516C36.8569 24.2825 37.6671 25.8227 38.396 27.3547C38.9 28.4122 39.3653 29.465 39.7891 30.5071C40.4262 32.0686 40.9714 33.6066 41.4177 35.1008C41.6768 35.9722 41.904 36.8271 42.0948 37.6644C42.2891 38.5169 42.4481 39.3507 42.5682 40.1596C42.9264 42.5654 42.9182 44.685 42.5472 46.2901Z" fill="#5B54F0"/>
<path d="M47.3483 18.6747C46.4945 18.338 45.5948 18.0259 44.6551 17.7385C43.8308 17.4877 42.9759 17.2557 42.0938 17.045C39.7787 16.4915 37.2775 16.0794 34.6598 15.8203C33.5164 15.706 32.3494 15.6225 31.167 15.5694C30.1237 15.5212 29.0662 15.4964 28.0006 15.4964C26.9349 15.4964 25.8773 15.5211 24.8328 15.5694C23.6494 15.6224 22.4824 15.7073 21.339 15.8203C18.7212 16.0794 16.2212 16.4915 13.9061 17.045C13.0241 17.2557 12.1692 17.4878 11.3448 17.7385C10.4051 18.0247 9.50542 18.338 8.65162 18.6747C3.07351 20.8767 0 23.9597 0 27.3546C0 30.7495 3.07351 33.8325 8.65173 36.0358C9.50554 36.3725 10.404 36.6846 11.3436 36.972C12.1679 37.2228 13.0228 37.4548 13.9049 37.6644C16.2201 38.219 18.7212 38.63 21.3402 38.8902C22.4836 39.0032 23.6506 39.0869 24.8341 39.1411C25.8774 39.1893 26.9349 39.2129 28.0006 39.2129C29.0662 39.2129 30.1226 39.1893 31.1659 39.1411C32.3494 39.0869 33.5152 39.0032 34.6598 38.8902C37.2775 38.6311 39.7799 38.219 42.0951 37.6644C42.977 37.4536 43.832 37.2228 44.6564 36.9708C45.5949 36.6847 46.4946 36.3726 47.3483 36.0358C52.9276 33.8325 56 30.7497 56 27.3546C55.9999 23.9597 52.9276 20.8767 47.3483 18.6747ZM51.6723 30.4846C50.4688 31.6092 48.6365 32.6749 46.3743 33.5687C45.6125 33.8689 44.8117 34.1492 43.9755 34.4059C43.1548 34.6592 42.3011 34.8911 41.4179 35.1007C39.8999 35.4623 38.2949 35.759 36.6239 35.9887C35.5099 36.143 34.3664 36.2666 33.1994 36.3573C31.5073 36.4928 29.768 36.5611 28.0005 36.5611C26.2329 36.5611 24.4936 36.4928 22.8015 36.3585C21.6345 36.2667 20.4899 36.1431 19.3759 35.9888C17.7049 35.7591 16.0998 35.4624 14.5819 35.1008C13.6987 34.8912 12.845 34.6593 12.0242 34.406C11.1881 34.1493 10.3874 33.869 9.62545 33.5688C7.36337 32.675 5.53101 31.6093 4.3275 30.4847C3.21585 29.4472 2.65179 28.3945 2.65179 27.3547C2.65179 26.315 3.21585 25.2622 4.3275 24.2248C5.53101 23.1002 7.36326 22.0345 9.62545 21.1407C10.3873 20.8404 11.1881 20.5602 12.0242 20.3034C12.845 20.0502 13.6987 19.8183 14.5819 19.6086C16.0998 19.2471 17.7049 18.9504 19.3759 18.7207C20.4899 18.5664 21.6345 18.4428 22.8015 18.3509C24.4936 18.2167 26.2329 18.1484 28.0005 18.1484C29.768 18.1484 31.5073 18.2167 33.1994 18.3522C34.3664 18.4429 35.5099 18.5665 36.6239 18.7208C38.2949 18.9505 39.8999 19.2472 41.4179 19.6088C42.3011 19.8184 43.1548 20.0503 43.9755 20.3035C44.8117 20.5603 45.6124 20.8406 46.3743 21.1408C48.6364 22.0346 50.4688 23.1003 51.6723 24.2249C52.7839 25.2624 53.348 26.3151 53.348 27.3548C53.348 28.3945 52.7839 29.4472 51.6723 30.4846Z" fill="#5B54F0"/>
<path d="M41.9995 3.10576C39.0591 1.40887 34.854 2.52875 30.1566 6.25816C29.4383 6.82931 28.7176 7.4522 28.0005 8.12343C27.3705 8.71104 26.7416 9.33629 26.1188 9.99456C24.4807 11.7232 22.8734 13.6827 21.339 15.82C20.669 16.755 20.013 17.7231 19.376 18.7204C18.812 19.6001 18.2632 20.5021 17.731 21.4253C17.1987 22.3485 16.6912 23.2753 16.2107 24.2032C15.6654 25.2548 15.1543 26.3075 14.681 27.3544C13.5964 29.7519 12.7027 32.1235 12.0244 34.4057C11.7653 35.2759 11.5381 36.132 11.3437 36.9716C11.1223 37.9278 10.9421 38.8617 10.8079 39.7696C10.4075 42.4674 10.4228 44.8073 10.8373 46.7173C12.6172 52.484 16.5053 53.3411 20.8998 51.4948C22.4554 50.8413 24.1158 49.8226 25.8433 48.4507C26.5628 47.8795 27.2835 47.2567 28.0007 46.5866C28.6307 45.999 29.2584 45.3748 29.8813 44.7166C31.5181 42.9879 33.1267 41.0272 34.6599 38.8898C35.3299 37.9548 35.9859 36.9868 36.6241 35.9883C37.1882 35.1087 37.7369 34.2067 38.2692 33.2834C38.8026 32.3613 39.309 31.4346 39.7895 30.5067C40.3347 29.4551 40.8458 28.4024 41.3204 27.3543C42.4038 24.9578 43.2976 22.5851 43.9758 20.303C44.2337 19.4339 44.461 18.5778 44.6553 17.7382C44.8778 16.7819 45.0568 15.847 45.1923 14.9391C46.0728 9.0054 44.94 4.80379 41.9995 3.10576ZM41.4179 19.6084C40.9716 21.1028 40.4264 22.6407 39.7893 24.2021C39.3653 25.2442 38.9002 26.297 38.3962 27.3545C37.6673 28.8865 36.8571 30.4268 35.9728 31.9577C35.0895 33.4873 34.1604 34.9593 33.1996 36.3571C32.5355 37.3227 31.856 38.2517 31.1659 39.1408C30.1321 40.4727 29.0722 41.7138 27.9995 42.8478C27.3766 43.5072 26.7488 44.1313 26.1189 44.7154C25.4783 45.3113 24.8353 45.8647 24.1947 46.3734C22.2894 47.8866 20.4499 48.9394 18.8744 49.421C17.4201 49.8638 16.226 49.8261 15.3263 49.3056C14.4266 48.7863 13.7954 47.7712 13.4528 46.2898C13.0819 44.6848 13.0736 42.5652 13.4316 40.1594C13.5518 39.3504 13.7107 38.5167 13.905 37.6641C14.0958 36.8269 14.323 35.972 14.5821 35.1006C15.0283 33.6062 15.5736 32.0671 16.2107 30.5056C16.6346 29.4635 17.0997 28.4107 17.6037 27.3545C18.3327 25.8225 19.1428 24.2822 20.0272 22.7513C20.9104 21.2204 21.8395 19.7485 22.8016 18.3507C23.4646 17.3862 24.1428 16.4571 24.8329 15.5693C25.868 14.2363 26.9278 12.9951 27.9993 11.8611C28.6235 11.2004 29.2523 10.5763 29.8811 9.99343C30.5229 9.39759 31.1646 8.84413 31.8053 8.33541C33.7106 6.82345 35.55 5.7695 37.1255 5.28895C37.7944 5.08407 38.4091 4.98163 38.9649 4.98163C39.6161 4.98163 40.1883 5.12295 40.6735 5.40323C41.5743 5.92254 42.2044 6.93762 42.547 8.41903C42.9179 10.0241 42.9262 12.1437 42.5682 14.5495C42.4481 15.3584 42.2892 16.1922 42.0936 17.0447C41.9042 17.882 41.6769 18.7369 41.4179 19.6084Z" fill="#5B54F0"/>
<path d="M28.0006 32.6171C30.907 32.6171 33.2631 30.261 33.2631 27.3545C33.2631 24.4481 30.907 22.092 28.0006 22.092C25.0942 22.092 22.738 24.4481 22.738 27.3545C22.738 30.261 25.0942 32.6171 28.0006 32.6171Z" fill="#5B54F0"/>
</g>
<defs>
<clipPath id="clip0">
<rect width="56" height="56" fill="white"/>
</clipPath>
</defs>
</svg>
