<svg width="18" height="18" viewBox="0 0 18 18" fill="none" xmlns="http://www.w3.org/2000/svg">
<path d="M18 7.06901C18 6.80216 17.7981 6.63632 17.3941 6.57135L11.964 5.78182L9.53012 0.859847C9.39319 0.564163 9.21636 0.416397 9.00006 0.416397C8.78379 0.416397 8.60707 0.564163 8.47003 0.859847L6.03606 5.78182L0.60569 6.57135C0.201947 6.63632 0 6.80216 0 7.06901C0 7.22053 0.0901752 7.39361 0.270488 7.58832L4.20804 11.4177L3.27776 16.8262C3.26332 16.9272 3.25616 16.9996 3.25616 17.0427C3.25616 17.1941 3.29397 17.322 3.36967 17.4267C3.44534 17.5315 3.55885 17.5836 3.71037 17.5836C3.84025 17.5836 3.98442 17.5406 4.14306 17.4539L8.99994 14.9008L13.8572 17.4539C14.0089 17.5406 14.1531 17.5836 14.2897 17.5836C14.4344 17.5836 14.5441 17.5315 14.6198 17.4267C14.6953 17.3222 14.7332 17.1941 14.7332 17.0427C14.7332 16.949 14.7295 16.8769 14.7223 16.8262L13.7919 11.4177L17.7186 7.58832C17.9064 7.40081 18 7.22765 18 7.06901Z" fill="#14CF74"/>
</svg>
